[
  {
    "pertanyaan": "Apakah perasaan yang sahabat rasakan ?",
    "keterangan": "",
    "tipe": "radio",
    "isi": [
      {"jawaban": "Sedih"},
      {"jawaban": "Marah"},
      {"jawaban": "Hampa"},
      {"jawaban": "Tertekan"},
      {"jawaban": "Stress"},
      {"jawaban": "Bahagia"}
    ],
    "lainnya": 0
  }
]