[
  {
    "pertanyaan": "Apa masalah percintaan yang anda hadapi saat ini ?",
    "keterangan": "",
    "tipe": "radio",
    "isi": [
      {"jawaban": "Orang ketiga"},
      {"jawaban": "Posesif berlebihan"},
      {"jawaban": "Galau menentukan pilihan"},
      {"jawaban": "Gagal menjalin hubungan"},
      {"jawaban": "Mencintai orang tidak tepat"},
      {"jawaban": "Perbedaan pendapat"},
      {"jawaban": "Perbedaan keyakinan"},
      {"jawaban": "Jenuh"},
      {"jawaban": "Kesalah pahaman"},
      {"jawaban": "Pacaran tidak sehat"},
      {"jawaban": "Trauma dalam percintaan"},
      {"jawaban": "Lainnya"}
    ],
    "lainnya": 1
  },
  {
    "pertanyaan": "Apa masalah keuangan yang anda hadapi saat ini ?",
    "keterangan": "",
    "tipe": "radio",
    "isi": [
      {"jawaban": "Terlilit hutang BANK"},
      {"jawaban": "Terlilit hutang TEMAN"},
      {"jawaban": "Terlilit hutang RENTENIR"},
      {"jawaban": "Terlilit hutang PINAJAMAN ONLINE"},
      {"jawaban": "Tidak memiliki tabungan atau investasi apapun"},
      {"jawaban": "Gagal dalam menjalankan usaha"},
      {"jawaban": "Bergaya hidup konsumtif"},
      {"jawaban": "Terlalu banyak keinginan"},
      {"jawaban": "Berurusan dengan bank"},
      {"jawaban": "Kesulitan memenuhi kebutuhan sehari-hari"},
      {"jawaban": "Biaya pengobatan"},
      {"jawaban": "Lainnya"}
    ],
    "lainnya": 1
  },
  {
    "pertanyaan": "Apa masalah keluarga yang anda hadapi saat ini ?",
    "keterangan": "",
    "tipe": "radio",
    "isi": [
      {"jawaban": "Orang ketiga"},
      {"jawaban": "Harta warisan"},
      {"jawaban": "Perbedaan pendapat"},
      {"jawaban": "Perbedaan keyakinan"},
      {"jawaban": "Pilih kasih"},
      {"jawaban": "Permasalahan anak"},
      {"jawaban": "Kecanduan game"},
      {"jawaban": "Pergaulan bebas"},
      {"jawaban": "Sulit di kendalikan"},
      {"jawaban": "Belum dikarunia momongan"},
      {"jawaban": "Permasalahan orang tua"},
      {"jawaban": "Permasalahan  mertua"},
      {"jawaban": "Permasalahan saudara"},
      {"jawaban": "Misskomunikasi"},
      {"jawaban": "Sulit membagi waktu"},
      {"jawaban": "Broken home"},
      {"jawaban": "Lainnya"}
    ],
    "lainnya": 1
  },
  {
    "pertanyaan": "Apa masalah pertemanan yang anda hadapi saat ini ?",
    "keterangan": "",
    "tipe": "radio",
    "isi": [
      {"jawaban": "Misskomunikasi"},
      {"jawaban": "Berbeda pendapat"},
      {"jawaban": "Terlau perasa/sensitive"},
      {"jawaban": "Mementingkan kepentingan pribadi (egois)"},
      {"jawaban": "Bullying"},
      {"jawaban": "Lainnya"}
    ],
    "lainnya": 1
  },
  {
    "pertanyaan": "Apa masalah studi dan karir yang anda hadapi saat ini ?",
    "keterangan": "",
    "tipe": "radio",
    "isi": [
      {"jawaban": "Pekerjaan tidak sesuai dengan yang diharapkan"},
      {"jawaban": "Ingin memulai bisnis sampingan"},
      {"jawaban": "Bekerja/berbisnis"},
      {"jawaban": "Kuliah/bekerja"},
      {"jawaban": "Bingung menentukan jurusan kuliah"},
      {"jawaban": "Kesulitan belajar"},
      {"jawaban": "Lainnya"}
    ],
    "lainnya": 1
  },
  {
    "pertanyaan": "Apa masalah kondisi diri yang anda hadapi saat ini ?",
    "keterangan": "",
    "tipe": "radio",
    "isi": [
      {"jawaban": "Kelainan seksual"},
      {"jawaban": "Mudah marah"},
      {"jawaban": "Mudah sedih"},
      {"jawaban": "Insomnia"},
      {"jawaban": "Tidak percaya diri"},
      {"jawaban": "Kecemasan berlebihan"},
      {"jawaban": "Trauma masa lalu"},
      {"jawaban": "Kecanduan obat-obatan terlarang"},
      {"jawaban": "Kecanduan game"},
      {"jawaban": "Tidak memiliki semangat hidup"},
      {"jawaban": "Sulit beradaptasi"},
      {"jawaban": "Lainnya"}
    ],
    "lainnya": 1
  }
]